{
    "name": "com.banana.local",
    "rootNamespace": "",
    "references": [
        "GUID:75469ad4d38634e559750d17036d5f7c",
        "GUID:6055be8ebefd69e48b49212b09b47b2f",
        "GUID:e39dcbb0dce6dce4da3f517284c71450",
        "GUID:0d8beb7f090555447a6cf5ce9e54dbb4",
        "GUID:61addcf98af284441a5d324ee2fe87eb"
    ],
    "includePlatforms": [],
    "excludePlatforms": [],
    "allowUnsafeCode": false,
    "overrideReferences": false,
    "precompiledReferences": [],
    "autoReferenced": true,
    "defineConstraints": [],
    "versionDefines": [],
    "noEngineReferences": false
}