%YAML 1.1
%TAG !u! tag:unity3d.com,2011:
--- !u!1001 &6085154351721694997
PrefabInstance:
  m_ObjectHideFlags: 0
  serializedVersion: 2
  m_Modification:
    m_TransformParent: {fileID: 0}
    m_Modifications:
    - target: {fileID: 723660776340406687, guid: 76299fa377b460c4ba8377ff34193260, type: 3}
      propertyPath: <AssetPathHash>k__BackingField
      value: 6129453962099372051
      objectReference: {fileID: 0}
    - target: {fileID: 723660776340406687, guid: 76299fa377b460c4ba8377ff34193260, type: 3}
      propertyPath: _networkBehaviours.Array.data[0]
      value: 
      objectReference: {fileID: 0}
    - target: {fileID: 804360947388185950, guid: 76299fa377b460c4ba8377ff34193260, type: 3}
      propertyPath: m_Sprite
      value: 
      objectReference: {fileID: 21300000, guid: 9f2dc610489e0b44782c855227fcc153, type: 3}
    - target: {fileID: 1049132232211506262, guid: 76299fa377b460c4ba8377ff34193260, type: 3}
      propertyPath: m_Sprite
      value: 
      objectReference: {fileID: 21300000, guid: 9f2dc610489e0b44782c855227fcc153, type: 3}
    - target: {fileID: 1061988314858748530, guid: 76299fa377b460c4ba8377ff34193260, type: 3}
      propertyPath: m_RootOrder
      value: 0
      objectReference: {fileID: 0}
    - target: {fileID: 1061988314858748530, guid: 76299fa377b460c4ba8377ff34193260, type: 3}
      propertyPath: m_LocalPosition.x
      value: 0
      objectReference: {fileID: 0}
    - target: {fileID: 1061988314858748530, guid: 76299fa377b460c4ba8377ff34193260, type: 3}
      propertyPath: m_LocalPosition.y
      value: 0
      objectReference: {fileID: 0}
    - target: {fileID: 1061988314858748530, guid: 76299fa377b460c4ba8377ff34193260, type: 3}
      propertyPath: m_LocalPosition.z
      value: 0
      objectReference: {fileID: 0}
    - target: {fileID: 1061988314858748530, guid: 76299fa377b460c4ba8377ff34193260, type: 3}
      propertyPath: m_LocalRotation.w
      value: 1
      objectReference: {fileID: 0}
    - target: {fileID: 1061988314858748530, guid: 76299fa377b460c4ba8377ff34193260, type: 3}
      propertyPath: m_LocalRotation.x
      value: 0
      objectReference: {fileID: 0}
    - target: {fileID: 1061988314858748530, guid: 76299fa377b460c4ba8377ff34193260, type: 3}
      propertyPath: m_LocalRotation.y
      value: 0
      objectReference: {fileID: 0}
    - target: {fileID: 1061988314858748530, guid: 76299fa377b460c4ba8377ff34193260, type: 3}
      propertyPath: m_LocalRotation.z
      value: 0
      objectReference: {fileID: 0}
    - target: {fileID: 1061988314858748530, guid: 76299fa377b460c4ba8377ff34193260, type: 3}
      propertyPath: m_LocalEulerAnglesHint.x
      value: 0
      objectReference: {fileID: 0}
    - target: {fileID: 1061988314858748530, guid: 76299fa377b460c4ba8377ff34193260, type: 3}
      propertyPath: m_LocalEulerAnglesHint.y
      value: 0
      objectReference: {fileID: 0}
    - target: {fileID: 1061988314858748530, guid: 76299fa377b460c4ba8377ff34193260, type: 3}
      propertyPath: m_LocalEulerAnglesHint.z
      value: 0
      objectReference: {fileID: 0}
    - target: {fileID: 1061988314858748535, guid: 76299fa377b460c4ba8377ff34193260, type: 3}
      propertyPath: m_Name
      value: BananaIceRight Variant
      objectReference: {fileID: 0}
    - target: {fileID: 9132053426206768057, guid: 76299fa377b460c4ba8377ff34193260, type: 3}
      propertyPath: <AssetPathHash>k__BackingField
      value: 6129453962099372051
      objectReference: {fileID: 0}
    m_RemovedComponents:
    - {fileID: 9153881789569832441, guid: 76299fa377b460c4ba8377ff34193260, type: 3}
    - {fileID: 1499660025217545829, guid: 76299fa377b460c4ba8377ff34193260, type: 3}
  m_SourcePrefab: {fileID: 100100000, guid: 76299fa377b460c4ba8377ff34193260, type: 3}
--- !u!1 &6543236692051901794 stripped
GameObject:
  m_CorrespondingSourceObject: {fileID: 1061988314858748535, guid: 76299fa377b460c4ba8377ff34193260, type: 3}
  m_PrefabInstance: {fileID: 6085154351721694997}
  m_PrefabAsset: {fileID: 0}
--- !u!60 &101431170627640656
PolygonCollider2D:
  m_ObjectHideFlags: 0
  m_CorrespondingSourceObject: {fileID: 0}
  m_PrefabInstance: {fileID: 0}
  m_PrefabAsset: {fileID: 0}
  m_GameObject: {fileID: 6543236692051901794}
  m_Enabled: 1
  m_Density: 1
  m_Material: {fileID: 0}
  m_IsTrigger: 0
  m_UsedByEffector: 0
  m_UsedByComposite: 0
  m_Offset: {x: 0, y: 0}
  m_SpriteTilingProperty:
    border: {x: 0, y: 0, z: 0, w: 0}
    pivot: {x: 0.5, y: 0.5}
    oldSize: {x: 10.8, y: 6.35}
    newSize: {x: 6.36, y: 10.8}
    adaptiveTilingThreshold: 0.5
    drawMode: 0
    adaptiveTiling: 0
  m_AutoTiling: 0
  m_Points:
    m_Paths:
    - - {x: -3.851915, y: -2.860105}
      - {x: 4.541603, y: -2.7412393}
      - {x: 5.1375227, y: 2.562139}
      - {x: 4.506728, y: 3.1416461}
      - {x: -0.054771006, y: -0.32546872}
      - {x: -4.4274435, y: 1.3797481}
      - {x: -5.267149, y: 0.62848943}
