%YAML 1.1
%TAG !u! tag:unity3d.com,2011:
--- !u!1001 &6882037288927404487
PrefabInstance:
  m_ObjectHideFlags: 0
  serializedVersion: 2
  m_Modification:
    serializedVersion: 3
    m_TransformParent: {fileID: 0}
    m_Modifications:
    - target: {fileID: 8268955062703908210, guid: 1de5734a6ccbaec46806ff777fce1778, type: 3}
      propertyPath: m_Name
      value: StaminaIceBase Variant
      objectReference: {fileID: 0}
    - target: {fileID: 8268955062703908211, guid: 1de5734a6ccbaec46806ff777fce1778, type: 3}
      propertyPath: m_Pivot.x
      value: 0.5
      objectReference: {fileID: 0}
    - target: {fileID: 8268955062703908211, guid: 1de5734a6ccbaec46806ff777fce1778, type: 3}
      propertyPath: m_Pivot.y
      value: 0.5
      objectReference: {fileID: 0}
    - target: {fileID: 8268955062703908211, guid: 1de5734a6ccbaec46806ff777fce1778, type: 3}
      propertyPath: m_RootOrder
      value: 0
      objectReference: {fileID: 0}
    - target: {fileID: 8268955062703908211, guid: 1de5734a6ccbaec46806ff777fce1778, type: 3}
      propertyPath: m_AnchorMax.x
      value: 0.5
      objectReference: {fileID: 0}
    - target: {fileID: 8268955062703908211, guid: 1de5734a6ccbaec46806ff777fce1778, type: 3}
      propertyPath: m_AnchorMax.y
      value: 0.5
      objectReference: {fileID: 0}
    - target: {fileID: 8268955062703908211, guid: 1de5734a6ccbaec46806ff777fce1778, type: 3}
      propertyPath: m_AnchorMin.x
      value: 0.5
      objectReference: {fileID: 0}
    - target: {fileID: 8268955062703908211, guid: 1de5734a6ccbaec46806ff777fce1778, type: 3}
      propertyPath: m_AnchorMin.y
      value: 0.5
      objectReference: {fileID: 0}
    - target: {fileID: 8268955062703908211, guid: 1de5734a6ccbaec46806ff777fce1778, type: 3}
      propertyPath: m_SizeDelta.x
      value: 320
      objectReference: {fileID: 0}
    - target: {fileID: 8268955062703908211, guid: 1de5734a6ccbaec46806ff777fce1778, type: 3}
      propertyPath: m_SizeDelta.y
      value: 30
      objectReference: {fileID: 0}
    - target: {fileID: 8268955062703908211, guid: 1de5734a6ccbaec46806ff777fce1778, type: 3}
      propertyPath: m_LocalPosition.x
      value: 0
      objectReference: {fileID: 0}
    - target: {fileID: 8268955062703908211, guid: 1de5734a6ccbaec46806ff777fce1778, type: 3}
      propertyPath: m_LocalPosition.y
      value: 0
      objectReference: {fileID: 0}
    - target: {fileID: 8268955062703908211, guid: 1de5734a6ccbaec46806ff777fce1778, type: 3}
      propertyPath: m_LocalPosition.z
      value: 0
      objectReference: {fileID: 0}
    - target: {fileID: 8268955062703908211, guid: 1de5734a6ccbaec46806ff777fce1778, type: 3}
      propertyPath: m_LocalRotation.w
      value: 1
      objectReference: {fileID: 0}
    - target: {fileID: 8268955062703908211, guid: 1de5734a6ccbaec46806ff777fce1778, type: 3}
      propertyPath: m_LocalRotation.x
      value: 0
      objectReference: {fileID: 0}
    - target: {fileID: 8268955062703908211, guid: 1de5734a6ccbaec46806ff777fce1778, type: 3}
      propertyPath: m_LocalRotation.y
      value: 0
      objectReference: {fileID: 0}
    - target: {fileID: 8268955062703908211, guid: 1de5734a6ccbaec46806ff777fce1778, type: 3}
      propertyPath: m_LocalRotation.z
      value: 0
      objectReference: {fileID: 0}
    - target: {fileID: 8268955062703908211, guid: 1de5734a6ccbaec46806ff777fce1778, type: 3}
      propertyPath: m_AnchoredPosition.x
      value: -462.16742
      objectReference: {fileID: 0}
    - target: {fileID: 8268955062703908211, guid: 1de5734a6ccbaec46806ff777fce1778, type: 3}
      propertyPath: m_AnchoredPosition.y
      value: -14.999985
      objectReference: {fileID: 0}
    - target: {fileID: 8268955062703908211, guid: 1de5734a6ccbaec46806ff777fce1778, type: 3}
      propertyPath: m_LocalEulerAnglesHint.x
      value: 0
      objectReference: {fileID: 0}
    - target: {fileID: 8268955062703908211, guid: 1de5734a6ccbaec46806ff777fce1778, type: 3}
      propertyPath: m_LocalEulerAnglesHint.y
      value: 0
      objectReference: {fileID: 0}
    - target: {fileID: 8268955062703908211, guid: 1de5734a6ccbaec46806ff777fce1778, type: 3}
      propertyPath: m_LocalEulerAnglesHint.z
      value: 0
      objectReference: {fileID: 0}
    - target: {fileID: 8268955062703908212, guid: 1de5734a6ccbaec46806ff777fce1778, type: 3}
      propertyPath: m_Value
      value: 120
      objectReference: {fileID: 0}
    - target: {fileID: 8268955062703908212, guid: 1de5734a6ccbaec46806ff777fce1778, type: 3}
      propertyPath: m_MaxValue
      value: 120
      objectReference: {fileID: 0}
    - target: {fileID: 8268955063763076432, guid: 1de5734a6ccbaec46806ff777fce1778, type: 3}
      propertyPath: m_Color.b
      value: 1
      objectReference: {fileID: 0}
    - target: {fileID: 8268955063763076432, guid: 1de5734a6ccbaec46806ff777fce1778, type: 3}
      propertyPath: m_Color.g
      value: 1
      objectReference: {fileID: 0}
    - target: {fileID: 8268955063763076432, guid: 1de5734a6ccbaec46806ff777fce1778, type: 3}
      propertyPath: m_Color.r
      value: 1
      objectReference: {fileID: 0}
    - target: {fileID: 8268955063763076447, guid: 1de5734a6ccbaec46806ff777fce1778, type: 3}
      propertyPath: m_AnchorMax.x
      value: 0
      objectReference: {fileID: 0}
    - target: {fileID: 8268955063763076447, guid: 1de5734a6ccbaec46806ff777fce1778, type: 3}
      propertyPath: m_AnchorMax.y
      value: 0
      objectReference: {fileID: 0}
    - target: {fileID: 8268955064291038026, guid: 1de5734a6ccbaec46806ff777fce1778, type: 3}
      propertyPath: m_AnchorMax.x
      value: 0
      objectReference: {fileID: 0}
    - target: {fileID: 8268955064291038026, guid: 1de5734a6ccbaec46806ff777fce1778, type: 3}
      propertyPath: m_AnchorMax.y
      value: 0
      objectReference: {fileID: 0}
    - target: {fileID: 8268955064291038026, guid: 1de5734a6ccbaec46806ff777fce1778, type: 3}
      propertyPath: m_AnchorMin.x
      value: 0
      objectReference: {fileID: 0}
    m_RemovedComponents: []
    m_RemovedGameObjects: []
    m_AddedGameObjects: []
    m_AddedComponents: []
  m_SourcePrefab: {fileID: 100100000, guid: 1de5734a6ccbaec46806ff777fce1778, type: 3}
