%YAML 1.1
%TAG !u! tag:unity3d.com,2011:
--- !u!114 &11400000
MonoBehaviour:
  m_ObjectHideFlags: 0
  m_CorrespondingSourceObject: {fileID: 0}
  m_PrefabInstance: {fileID: 0}
  m_PrefabAsset: {fileID: 0}
  m_GameObject: {fileID: 0}
  m_Enabled: 1
  m_EditorHideFlags: 0
  m_Script: {fileID: 11500000, guid: 3ad70174b079c2f4ebc7931d3dd1af6f, type: 3}
  m_Name: DefaultPrefabObjects
  m_EditorClassIdentifier: 
  _prefabs:
  - {fileID: 7022077165225892416, guid: 871a57a3a971e8d4399f71e91880f249, type: 3}
  - {fileID: 3565614579534981948, guid: 7ae237e3f503f0b488a3413e059c8d58, type: 3}
  - {fileID: -4987004110364581655, guid: a66a83eed2fbe1342a55ea9275642874, type: 3}
  - {fileID: 6420502260743957901, guid: 08ccb3cb72881e3499a23d30ef4f6ee2, type: 3}
  - {fileID: 1727748298, guid: 75bdd877946256044b22a942eeadb064, type: 3}
  - {fileID: 8255375720132734432, guid: 3768566b56797634596b9a1f749b416f, type: 3}
  - {fileID: -7693546833739609826, guid: a43c15e31c3cfc34abb20f516059ed4b, type: 3}
  - {fileID: 8475222101369129519, guid: 8cf33e8e99a9b0c4c8f29ff725650de6, type: 3}
  - {fileID: 4512293259955182956, guid: 44611030e61220d42ab7c37ba3c0ea92, type: 3}
  - {fileID: 4512293259955182956, guid: 0d6d0f48b03b17f49a6340103cd9b9d0, type: 3}
  - {fileID: 611616139817875448, guid: bf5f023b4017a5e41a9815ec5745df3d, type: 3}
  - {fileID: 4512293259955182956, guid: f32d4c19de900e64cb73cedcb8ba6f70, type: 3}
  - {fileID: 8192566354860284824, guid: 6331b3542e64a564c81bc39cedf70c8d, type: 3}
