%YAML 1.1
%TAG !u! tag:unity3d.com,2011:
--- !u!221 &22100000
AnimatorOverrideController:
  m_ObjectHideFlags: 0
  m_CorrespondingSourceObject: {fileID: 0}
  m_PrefabInstance: {fileID: 0}
  m_PrefabAsset: {fileID: 0}
  m_Name: Base Override
  m_Controller: {fileID: 9100000, guid: b5b43052e748be34a8b1778b1669b4c6, type: 2}
  m_Clips:
  - m_OriginalClip: {fileID: 7400000, guid: dcbf24ff5ef63444f8dd5c7640f9165e, type: 2}
    m_OverrideClip: {fileID: 7400000, guid: 92c75fcfea24e4b4ab59fe8a4ff6b414, type: 2}
