{
    "name": "com.banana.shared",
    "rootNamespace": "",
    "references": [
        "GUID:75469ad4d38634e559750d17036d5f7c",
        "GUID:e39dcbb0dce6dce4da3f517284c71450",
        "GUID:0d8beb7f090555447a6cf5ce9e54dbb4",
        "GUID:6055be8ebefd69e48b49212b09b47b2f",
        "GUID:1d82bdf40e2465b44b34adf79595e74c",
        "GUID:7c88a4a7926ee5145ad2dfa06f454c67"
    ],
    "includePlatforms": [],
    "excludePlatforms": [],
    "allowUnsafeCode": false,
    "overrideReferences": false,
    "precompiledReferences": [],
    "autoReferenced": true,
    "defineConstraints": [],
    "versionDefines": [],
    "noEngineReferences": false
}