%YAML 1.1
%TAG !u! tag:unity3d.com,2011:
--- !u!221 &22100000
AnimatorOverrideController:
  m_ObjectHideFlags: 0
  m_CorrespondingSourceObject: {fileID: 0}
  m_PrefabInstance: {fileID: 0}
  m_PrefabAsset: {fileID: 0}
  m_Name: GameEndPlayer2
  m_Controller: {fileID: 9100000, guid: 278a29ed1e9bb374ab62cb7322dee1e8, type: 2}
  m_Clips:
  - m_OriginalClip: {fileID: 7400000, guid: d5c38dd4bac0a074e8f82eb11166832d, type: 2}
    m_OverrideClip: {fileID: 7400000, guid: 66f45be90c9e6bb42838bccf856cc19a, type: 2}
  - m_OriginalClip: {fileID: 7400000, guid: 93e20fd9721d4bb42a7c676da0c17a95, type: 2}
    m_OverrideClip: {fileID: 7400000, guid: fc904b79c1641ee40b0061d154656950, type: 2}
